<svg xmlns="http://www.w3.org/2000/svg" width="16" height="16" viewBox="0 0 16 16">
    <g fill="#19BBF5" fill-rule="evenodd">
        <path d="M8 15.158A7.166 7.166 0 0 1 .842 8 7.165 7.165 0 0 1 8 .842 7.165 7.165 0 0 1 15.158 8 7.166 7.166 0 0 1 8 15.158m5.657-12.815A7.948 7.948 0 0 0 8 0a7.95 7.95 0 0 0-5.657 2.343A7.948 7.948 0 0 0 0 7.999c0 2.137.832 4.146 2.343 5.657A7.945 7.945 0 0 0 8 16a7.95 7.95 0 0 0 5.657-2.343A7.945 7.945 0 0 0 16 8a7.946 7.946 0 0 0-2.343-5.656"/>
        <path d="M12.74 5.263a.421.421 0 0 0-.575-.154L8.022 7.501l-3.23-2.26a.42.42 0 1 0-.482.69l3.45 2.414.002.002a.19.19 0 0 0 .021.013l.006.004a.146.146 0 0 0 .023.012l.005.002.026.012.016.006.012.004.017.004.01.004.018.004.011.002.016.003c.006 0 .01 0 .016.002l.013.001a.344.344 0 0 0 .078-.001.446.446 0 0 0 .047-.009H8.1a.28.28 0 0 0 .043-.014l.006-.003a.333.333 0 0 0 .04-.017l.007-.005.014-.007 4.376-2.527a.421.421 0 0 0 .154-.575v.001z"/>
    </g>
</svg>
